…
## Statistics

First, calculate the allele counts from the genotype counts.

    geno1 <- geno %>% rowwise() %>%
      mutate(LOAD_M=2*LOAD_MM+LOAD_Mm) %>% 
      mutate(LOAD_m=2*LOAD_mm+LOAD_Mm) %>% 
      mutate(Control_M=2*Control_MM+Control_Mm) %>%
      mutate(Control_m=2*Control_mm+Control_Mm)
    geno1

    ## # A tibble: 171 × 13
    ## # Rowwise: 
    ##    SNP_ID    Allele   MAF LOAD_MM LOAD_Mm LOAD_mm Contr…¹ Contr…² Contr…³ LOAD_M
    ##    <chr>     <chr>  <dbl>   <int>   <int>   <int>   <int>   <int>   <int>  <dbl>
    ##  1 rs419010  A/g    0.493     112     278     150     206     348     150    502
    ##  2 rs394221  C/t    0.487     149     269      91     153     325     180    567
    ##  3 rs4803766 G/a    0.434     136     273     130     265     328     107    545
    ##  4 rs395908  G/a    0.28      228     240      70     414     261      26    696
    ##  5 rs519113  C/g    0.273     237     226      73     423     258      23    700
    ##  6 rs412776  G/a    0.257     245     230      65     440     237      19    720
    ##  7 rs3865427 C/a    0.209     299     198      43     481     206      14    796
    ##  8 rs3852860 T/c    0.321     191     268      77     359     292      36    650
    ##  9 rs3852861 T/g    0.318     196     261      80     375     294      39    653
    ## 10 rs6857    C/t    0.18      316     184      26     504     183      11    816
    ## # … with 161 more rows, 3 more variables: LOAD_m <dbl>, Control_M <dbl>,
    ## #   Control_m <dbl>, and abbreviated variable names ¹​Control_MM, ²​Control_Mm,
    ## #   ³​Control_mm
…
In what follows, calculate the allele-based chi-square test and odds
ratio with 95% confidence intervals for each SNP.

    geno1 <- geno1 %>% rowwise() %>%
      mutate(stats = paste(unlist(oddsratio(rbind(c(Control_M,LOAD_M),c(Control_m,LOAD_m))))[c("p.value6","measure2","measure4","measure6")], collapse=" ")) %>%
      separate(stats, c("p_value", "OR", "95_CI_inf", "95_CI_sup"), sep = " ", convert=TRUE)
    geno1[,c(1:2,10:17)]

    ## # A tibble: 171 × 10
    ##    SNP_ID    Allele LOAD_M LOAD_m Contr…¹ Contr…²  p_value    OR 95_CI…³ 95_CI…⁴
    ##    <chr>     <chr>   <dbl>  <dbl>   <dbl>   <dbl>    <dbl> <dbl>   <dbl>   <dbl>
    ##  1 rs419010  A/g       502    578     760     648 2.10e- 4 1.35    1.15    1.58 
    ##  2 rs394221  C/t       567    451     631     685 2.04e- 4 0.733   0.622   0.864
    ##  3 rs4803766 G/a       545    533     858     542 9.16e- 8 1.55    1.32    1.82 
    ##  4 rs395908  G/a       696    380    1089     313 9.24e-13 1.90    1.59    2.27 
    ##  5 rs519113  C/g       700    372    1104     304 3.77e-13 1.93    1.61    2.31 
    ##  6 rs412776  G/a       720    360    1117     275 1.81e-14 2.03    1.69    2.44 
    ##  7 rs3865427 C/a       796    284    1168     234 5.27e- 9 1.78    1.47    2.16 
    ##  8 rs3852860 T/c       650    422    1010     364 1.33e-11 1.80    1.52    2.14 
    ##  9 rs3852861 T/g       653    421    1044     372 6.99e-12 1.81    1.53    2.15 
    ## 10 rs6857    C/t       816    236    1191     205 7.88e- 7 1.68    1.37    2.07 
    ## # … with 161 more rows, and abbreviated variable names ¹​Control_M, ²​Control_m,
    ## #   ³​`95_CI_inf`, ⁴​`95_CI_sup`
…
